%!PS-Adobe-3.0 EPSF-3.0
%%Title: error_plot.eps
%%Creator: Matplotlib v3.6.2, https://matplotlib.org/
%%CreationDate: Mon Feb  5 21:02:47 2024
%%Orientation: portrait
%%BoundingBox: 75 223 537 569
%%HiResBoundingBox: 75.600000 223.200000 536.400000 568.800000
%%EndComments
%%BeginProlog
/mpldict 12 dict def
mpldict begin
/_d { bind def } bind def
/m { moveto } _d
/l { lineto } _d
/r { rlineto } _d
/c { curveto } _d
/cl { closepath } _d
/ce { closepath eofill } _d
/box {
      m
      1 index 0 r
      0 exch r
      neg 0 r
      cl
    } _d
/clipbox {
      box
      clip
      newpath
    } _d
/sc { setcachedevice } _d
%!PS-Adobe-3.0 Resource-Font
%%Creator: Converted from TrueType to Type 3 by Matplotlib.
10 dict begin
/FontName /DejaVuSans def
/PaintType 0 def
/FontMatrix [0.00048828125 0 0 0.00048828125 0 0] def
/FontBBox [-2090 -948 3673 2524] def
/FontType 3 def
/Encoding [/minus /space /parenleft /parenright /hyphen /period /slash /zero /one /two /three /four /five /B /D /E /I /N /P /S /a /e /f /h /i /l /m /n /o /p /q /r /s /t /u /x /y] def
/CharStrings 38 dict dup begin
/.notdef 0 def
/minus{1716 0 217 557 1499 727 sc
217 727 m
1499 727 l
1499 557 l
217 557 l
217 727 l

ce} _d
/space{651 0 0 0 0 0 sc
ce} _d
/parenleft{799 0 176 -270 635 1554 sc
635 1554 m
546 1401 479 1249 436 1099 c
393 949 371 797 371 643 c
371 489 393 336 436 185 c
480 34 546 -117 635 -270 c
475 -270 l
375 -113 300 41 250 192 c
201 343 176 494 176 643 c
176 792 201 941 250 1092 c
299 1243 374 1397 475 1554 c
635 1554 l

ce} _d
/parenright{799 0 164 -270 623 1554 sc
164 1554 m
324 1554 l
424 1397 499 1243 548 1092 c
598 941 623 792 623 643 c
623 494 598 343 548 192 c
499 41 424 -113 324 -270 c
164 -270 l
253 -117 319 34 362 185 c
406 336 428 489 428 643 c
428 797 406 949 362 1099 c
319 1249 253 1401 164 1554 c

ce} _d
/hyphen{739 0 100 479 639 643 sc
100 643 m
639 643 l
639 479 l
100 479 l
100 643 l

ce} _d
/period{651 0 219 0 430 254 sc
219 254 m
430 254 l
430 0 l
219 0 l
219 254 l

ce} _d
/slash{690 0 0 -190 690 1493 sc
520 1493 m
690 1493 l
170 -190 l
0 -190 l
520 1493 l

ce} _d
/zero{1303 0 135 -29 1167 1520 sc
651 1360 m
547 1360 469 1309 416 1206 c
364 1104 338 950 338 745 c
338 540 364 387 416 284 c
469 182 547 131 651 131 c
756 131 834 182 886 284 c
939 387 965 540 965 745 c
965 950 939 1104 886 1206 c
834 1309 756 1360 651 1360 c

651 1520 m
818 1520 946 1454 1034 1321 c
1123 1189 1167 997 1167 745 c
1167 494 1123 302 1034 169 c
946 37 818 -29 651 -29 c
484 -29 356 37 267 169 c
179 302 135 494 135 745 c
135 997 179 1189 267 1321 c
356 1454 484 1520 651 1520 c

ce} _d
/one{1303 0 225 0 1114 1493 sc
254 170 m
584 170 l
584 1309 l
225 1237 l
225 1421 l
582 1493 l
784 1493 l
784 170 l
1114 170 l
1114 0 l
254 0 l
254 170 l

ce} _d
/two{1303 0 150 0 1098 1520 sc
393 170 m
1098 170 l
1098 0 l
150 0 l
150 170 l
227 249 331 356 463 489 c
596 623 679 709 713 748 c
778 821 823 882 848 932 c
874 983 887 1032 887 1081 c
887 1160 859 1225 803 1275 c
748 1325 675 1350 586 1350 c
523 1350 456 1339 385 1317 c
315 1295 240 1262 160 1217 c
160 1421 l
241 1454 317 1478 388 1495 c
459 1512 523 1520 582 1520 c
737 1520 860 1481 952 1404 c
1044 1327 1090 1223 1090 1094 c
1090 1033 1078 974 1055 919 c
1032 864 991 800 930 725 c
913 706 860 650 771 557 c
682 465 556 336 393 170 c

ce} _d
/three{1303 0 156 -29 1139 1520 sc
831 805 m
928 784 1003 741 1057 676 c
1112 611 1139 530 1139 434 c
1139 287 1088 173 987 92 c
886 11 742 -29 555 -29 c
492 -29 428 -23 361 -10 c
295 2 227 20 156 45 c
156 240 l
212 207 273 183 340 166 c
407 149 476 141 549 141 c
676 141 772 166 838 216 c
905 266 938 339 938 434 c
938 522 907 591 845 640 c
784 690 698 715 588 715 c
414 715 l
414 881 l
596 881 l
695 881 771 901 824 940 c
877 980 903 1037 903 1112 c
903 1189 876 1247 821 1288 c
767 1329 689 1350 588 1350 c
533 1350 473 1344 410 1332 c
347 1320 277 1301 201 1276 c
201 1456 l
278 1477 349 1493 416 1504 c
483 1515 547 1520 606 1520 c
759 1520 881 1485 970 1415 c
1059 1346 1104 1252 1104 1133 c
1104 1050 1080 980 1033 923 c
986 866 918 827 831 805 c

ce} _d
/four{1303 0 100 0 1188 1493 sc
774 1317 m
264 520 l
774 520 l
774 1317 l

721 1493 m
975 1493 l
975 520 l
1188 520 l
1188 352 l
975 352 l
975 0 l
774 0 l
774 352 l
100 352 l
100 547 l
721 1493 l

ce} _d
/five{1303 0 158 -29 1124 1493 sc
221 1493 m
1014 1493 l
1014 1323 l
406 1323 l
406 957 l
435 967 465 974 494 979 c
523 984 553 987 582 987 c
749 987 881 941 978 850 c
1075 759 1124 635 1124 479 c
1124 318 1074 193 974 104 c
874 15 733 -29 551 -29 c
488 -29 424 -24 359 -13 c
294 -2 227 14 158 35 c
158 238 l
218 205 280 181 344 165 c
408 149 476 141 547 141 c
662 141 754 171 821 232 c
888 293 922 375 922 479 c
922 583 888 665 821 726 c
754 787 662 817 547 817 c
493 817 439 811 385 799 c
332 787 277 768 221 743 c
221 1493 l

ce} _d
/B{1405 0 201 0 1260 1493 sc
403 713 m
403 166 l
727 166 l
836 166 916 188 968 233 c
1021 278 1047 347 1047 440 c
1047 533 1021 602 968 646 c
916 691 836 713 727 713 c
403 713 l

403 1327 m
403 877 l
702 877 l
801 877 874 895 922 932 c
971 969 995 1026 995 1102 c
995 1177 971 1234 922 1271 c
874 1308 801 1327 702 1327 c
403 1327 l

201 1493 m
717 1493 l
871 1493 990 1461 1073 1397 c
1156 1333 1198 1242 1198 1124 c
1198 1033 1177 960 1134 906 c
1091 852 1029 818 946 805 c
1045 784 1122 739 1177 671 c
1232 604 1260 519 1260 418 c
1260 285 1215 182 1124 109 c
1033 36 904 0 737 0 c
201 0 l
201 1493 l

ce} _d
/D{1577 0 201 0 1456 1493 sc
403 1327 m
403 166 l
647 166 l
853 166 1004 213 1099 306 c
1195 399 1243 547 1243 748 c
1243 948 1195 1094 1099 1187 c
1004 1280 853 1327 647 1327 c
403 1327 l

201 1493 m
616 1493 l
905 1493 1118 1433 1253 1312 c
1388 1192 1456 1004 1456 748 c
1456 491 1388 302 1252 181 c
1116 60 904 0 616 0 c
201 0 l
201 1493 l

ce} _d
/E{1294 0 201 0 1163 1493 sc
201 1493 m
1145 1493 l
1145 1323 l
403 1323 l
403 881 l
1114 881 l
1114 711 l
403 711 l
403 170 l
1163 170 l
1163 0 l
201 0 l
201 1493 l

ce} _d
/I{604 0 201 0 403 1493 sc
201 1493 m
403 1493 l
403 0 l
201 0 l
201 1493 l

ce} _d
/N{1532 0 201 0 1331 1493 sc
201 1493 m
473 1493 l
1135 244 l
1135 1493 l
1331 1493 l
1331 0 l
1059 0 l
397 1249 l
397 0 l
201 0 l
201 1493 l

ce} _d
/P{1235 0 201 0 1165 1493 sc
403 1327 m
403 766 l
657 766 l
751 766 824 790 875 839 c
926 888 952 957 952 1047 c
952 1136 926 1205 875 1254 c
824 1303 751 1327 657 1327 c
403 1327 l

201 1493 m
657 1493 l
824 1493 951 1455 1036 1379 c
1122 1304 1165 1193 1165 1047 c
1165 900 1122 788 1036 713 c
951 638 824 600 657 600 c
403 600 l
403 0 l
201 0 l
201 1493 l

ce} _d
/S{1300 0 135 -29 1186 1520 sc
1096 1444 m
1096 1247 l
1019 1284 947 1311 879 1329 c
811 1347 745 1356 682 1356 c
572 1356 487 1335 427 1292 c
368 1249 338 1189 338 1110 c
338 1044 358 994 397 960 c
437 927 512 900 623 879 c
745 854 l
896 825 1007 775 1078 702 c
1150 630 1186 533 1186 412 c
1186 267 1137 158 1040 83 c
943 8 801 -29 614 -29 c
543 -29 468 -21 388 -5 c
309 11 226 35 141 66 c
141 274 l
223 228 303 193 382 170 c
461 147 538 135 614 135 c
729 135 818 158 881 203 c
944 248 975 313 975 397 c
975 470 952 528 907 569 c
862 610 789 641 686 662 c
563 686 l
412 716 303 763 236 827 c
169 891 135 980 135 1094 c
135 1226 181 1330 274 1406 c
367 1482 496 1520 659 1520 c
729 1520 800 1514 873 1501 c
946 1488 1020 1469 1096 1444 c

ce} _d
/a{1255 0 123 -29 1069 1147 sc
702 563 m
553 563 450 546 393 512 c
336 478 307 420 307 338 c
307 273 328 221 371 182 c
414 144 473 125 547 125 c
649 125 731 161 792 233 c
854 306 885 402 885 522 c
885 563 l
702 563 l

1069 639 m
1069 0 l
885 0 l
885 170 l
843 102 791 52 728 19 c
665 -13 589 -29 498 -29 c
383 -29 292 3 224 67 c
157 132 123 218 123 326 c
123 452 165 547 249 611 c
334 675 460 707 627 707 c
885 707 l
885 725 l
885 810 857 875 801 921 c
746 968 668 991 567 991 c
503 991 441 983 380 968 c
319 953 261 930 205 899 c
205 1069 l
272 1095 338 1114 401 1127 c
464 1140 526 1147 586 1147 c
748 1147 869 1105 949 1021 c
1029 937 1069 810 1069 639 c

ce} _d
/e{1260 0 113 -29 1151 1147 sc
1151 606 m
1151 516 l
305 516 l
313 389 351 293 419 226 c
488 160 583 127 705 127 c
776 127 844 136 910 153 c
977 170 1043 196 1108 231 c
1108 57 l
1042 29 974 8 905 -7 c
836 -22 765 -29 694 -29 c
515 -29 374 23 269 127 c
165 231 113 372 113 549 c
113 732 162 878 261 985 c
360 1093 494 1147 662 1147 c
813 1147 932 1098 1019 1001 c
1107 904 1151 773 1151 606 c

967 660 m
966 761 937 841 882 901 c
827 961 755 991 664 991 c
561 991 479 962 417 904 c
356 846 320 764 311 659 c
967 660 l

ce} _d
/f{721 0 47 0 760 1556 sc
760 1556 m
760 1403 l
584 1403 l
518 1403 472 1390 446 1363 c
421 1336 408 1288 408 1219 c
408 1120 l
711 1120 l
711 977 l
408 977 l
408 0 l
223 0 l
223 977 l
47 977 l
47 1120 l
223 1120 l
223 1198 l
223 1323 252 1413 310 1470 c
368 1527 460 1556 586 1556 c
760 1556 l

ce} _d
/h{1298 0 186 0 1124 1556 sc
1124 676 m
1124 0 l
940 0 l
940 670 l
940 776 919 855 878 908 c
837 961 775 987 692 987 c
593 987 514 955 457 892 c
400 829 371 742 371 633 c
371 0 l
186 0 l
186 1556 l
371 1556 l
371 946 l
415 1013 467 1064 526 1097 c
586 1130 655 1147 733 1147 c
862 1147 959 1107 1025 1027 c
1091 948 1124 831 1124 676 c

ce} _d
/i{569 0 193 0 377 1556 sc
193 1120 m
377 1120 l
377 0 l
193 0 l
193 1120 l

193 1556 m
377 1556 l
377 1323 l
193 1323 l
193 1556 l

ce} _d
/l{569 0 193 0 377 1556 sc
193 1556 m
377 1556 l
377 0 l
193 0 l
193 1556 l

ce} _d
/m{1995 0 186 0 1821 1147 sc
1065 905 m
1111 988 1166 1049 1230 1088 c
1294 1127 1369 1147 1456 1147 c
1573 1147 1663 1106 1726 1024 c
1789 943 1821 827 1821 676 c
1821 0 l
1636 0 l
1636 670 l
1636 777 1617 857 1579 909 c
1541 961 1483 987 1405 987 c
1310 987 1234 955 1179 892 c
1124 829 1096 742 1096 633 c
1096 0 l
911 0 l
911 670 l
911 778 892 858 854 909 c
816 961 757 987 678 987 c
584 987 509 955 454 891 c
399 828 371 742 371 633 c
371 0 l
186 0 l
186 1120 l
371 1120 l
371 946 l
413 1015 463 1065 522 1098 c
581 1131 650 1147 731 1147 c
812 1147 881 1126 938 1085 c
995 1044 1038 984 1065 905 c

ce} _d
/n{1298 0 186 0 1124 1147 sc
1124 676 m
1124 0 l
940 0 l
940 670 l
940 776 919 855 878 908 c
837 961 775 987 692 987 c
593 987 514 955 457 892 c
400 829 371 742 371 633 c
371 0 l
186 0 l
186 1120 l
371 1120 l
371 946 l
415 1013 467 1064 526 1097 c
586 1130 655 1147 733 1147 c
862 1147 959 1107 1025 1027 c
1091 948 1124 831 1124 676 c

ce} _d
/o{1253 0 113 -29 1141 1147 sc
627 991 m
528 991 450 952 393 875 c
336 798 307 693 307 559 c
307 425 335 319 392 242 c
449 165 528 127 627 127 c
725 127 803 166 860 243 c
917 320 946 426 946 559 c
946 692 917 797 860 874 c
803 952 725 991 627 991 c

627 1147 m
787 1147 913 1095 1004 991 c
1095 887 1141 743 1141 559 c
1141 376 1095 232 1004 127 c
913 23 787 -29 627 -29 c
466 -29 340 23 249 127 c
158 232 113 376 113 559 c
113 743 158 887 249 991 c
340 1095 466 1147 627 1147 c

ce} _d
/p{1300 0 186 -426 1188 1147 sc
371 168 m
371 -426 l
186 -426 l
186 1120 l
371 1120 l
371 950 l
410 1017 458 1066 517 1098 c
576 1131 647 1147 729 1147 c
865 1147 975 1093 1060 985 c
1145 877 1188 735 1188 559 c
1188 383 1145 241 1060 133 c
975 25 865 -29 729 -29 c
647 -29 576 -13 517 19 c
458 52 410 101 371 168 c

997 559 m
997 694 969 800 913 877 c
858 954 781 993 684 993 c
587 993 510 954 454 877 c
399 800 371 694 371 559 c
371 424 399 317 454 240 c
510 163 587 125 684 125 c
781 125 858 163 913 240 c
969 317 997 424 997 559 c

ce} _d
/q{1300 0 113 -426 1114 1147 sc
303 559 m
303 424 331 317 386 240 c
442 163 519 125 616 125 c
713 125 790 163 846 240 c
902 317 930 424 930 559 c
930 694 902 800 846 877 c
790 954 713 993 616 993 c
519 993 442 954 386 877 c
331 800 303 694 303 559 c

930 168 m
891 101 842 52 783 19 c
724 -13 654 -29 571 -29 c
436 -29 325 25 240 133 c
155 241 113 383 113 559 c
113 735 155 877 240 985 c
325 1093 436 1147 571 1147 c
654 1147 724 1131 783 1098 c
842 1066 891 1017 930 950 c
930 1120 l
1114 1120 l
1114 -426 l
930 -426 l
930 168 l

ce} _d
/r{842 0 186 0 842 1147 sc
842 948 m
821 960 799 969 774 974 c
750 980 723 983 694 983 c
590 983 510 949 454 881 c
399 814 371 717 371 590 c
371 0 l
186 0 l
186 1120 l
371 1120 l
371 946 l
410 1014 460 1064 522 1097 c
584 1130 659 1147 748 1147 c
761 1147 775 1146 790 1144 c
805 1143 822 1140 841 1137 c
842 948 l

ce} _d
/s{1067 0 111 -29 967 1147 sc
907 1087 m
907 913 l
855 940 801 960 745 973 c
689 986 631 993 571 993 c
480 993 411 979 365 951 c
320 923 297 881 297 825 c
297 782 313 749 346 724 c
379 700 444 677 543 655 c
606 641 l
737 613 829 573 884 522 c
939 471 967 400 967 309 c
967 205 926 123 843 62 c
761 1 648 -29 504 -29 c
444 -29 381 -23 316 -11 c
251 0 183 18 111 41 c
111 231 l
179 196 246 169 312 151 c
378 134 443 125 508 125 c
595 125 661 140 708 169 c
755 199 778 241 778 295 c
778 345 761 383 727 410 c
694 437 620 462 506 487 c
442 502 l
328 526 246 563 195 612 c
144 662 119 730 119 817 c
119 922 156 1004 231 1061 c
306 1118 412 1147 549 1147 c
617 1147 681 1142 741 1132 c
801 1122 856 1107 907 1087 c

ce} _d
/t{803 0 55 0 754 1438 sc
375 1438 m
375 1120 l
754 1120 l
754 977 l
375 977 l
375 369 l
375 278 387 219 412 193 c
437 167 488 154 565 154 c
754 154 l
754 0 l
565 0 l
423 0 325 26 271 79 c
217 132 190 229 190 369 c
190 977 l
55 977 l
55 1120 l
190 1120 l
190 1438 l
375 1438 l

ce} _d
/u{1298 0 174 -29 1112 1147 sc
174 442 m
174 1120 l
358 1120 l
358 449 l
358 343 379 263 420 210 c
461 157 523 131 606 131 c
705 131 784 163 841 226 c
899 289 928 376 928 485 c
928 1120 l
1112 1120 l
1112 0 l
928 0 l
928 172 l
883 104 831 53 772 20 c
713 -13 645 -29 567 -29 c
438 -29 341 11 274 91 c
207 171 174 288 174 442 c

637 1147 m
637 1147 l

ce} _d
/x{1212 0 59 0 1145 1120 sc
1124 1120 m
719 575 l
1145 0 l
928 0 l
602 440 l
276 0 l
59 0 l
494 586 l
96 1120 l
313 1120 l
610 721 l
907 1120 l
1124 1120 l

ce} _d
/y{1212 0 61 -426 1151 1120 sc
659 -104 m
607 -237 556 -324 507 -365 c
458 -406 392 -426 309 -426 c
162 -426 l
162 -272 l
270 -272 l
321 -272 360 -260 388 -236 c
416 -212 447 -155 481 -66 c
514 18 l
61 1120 l
256 1120 l
606 244 l
956 1120 l
1151 1120 l
659 -104 l

ce} _d
end readonly def

/BuildGlyph {
 exch begin
 CharStrings exch
 2 copy known not {pop /.notdef} if
 true 3 1 roll get exec
 end
} _d

/BuildChar {
 1 index /Encoding get exch get
 1 index /BuildGlyph get exec
} _d

FontName currentdict end definefont pop
%!PS-Adobe-3.0 Resource-Font
%%Creator: Converted from TrueType to Type 3 by Matplotlib.
10 dict begin
/FontName /DejaVuSans-Oblique def
/PaintType 0 def
/FontMatrix [0.00048828125 0 0 0.00048828125 0 0] def
/FontBBox [-2080 -717 3398 2187] def
/FontType 3 def
/Encoding [/Aring] def
/CharStrings 2 dict dup begin
/.notdef 0 def
/Aring{1401 0 -109 0 1260 1901 sc
1020 1626 m
1020 1668 1005 1704 975 1733 c
946 1763 910 1778 868 1778 c
825 1778 789 1763 760 1734 c
731 1705 717 1669 717 1626 c
717 1584 731 1548 760 1519 c
789 1490 825 1475 868 1475 c
910 1475 946 1490 975 1519 c
1005 1548 1020 1584 1020 1626 c

705 1407 m
669 1432 641 1463 622 1500 c
603 1538 594 1580 594 1626 c
594 1702 621 1767 674 1820 c
727 1874 792 1901 868 1901 c
944 1901 1009 1874 1062 1820 c
1116 1767 1143 1702 1143 1626 c
1143 1573 1131 1527 1106 1486 c
1082 1445 1047 1413 1001 1389 c
1260 0 l
1049 0 l
987 383 l
315 383 l
104 0 l
-109 0 l
705 1407 l

827 1294 m
408 551 l
956 551 l
827 1294 l

ce} _d
end readonly def

/BuildGlyph {
 exch begin
 CharStrings exch
 2 copy known not {pop /.notdef} if
 true 3 1 roll get exec
 end
} _d

/BuildChar {
 1 index /Encoding get exch get
 1 index /BuildGlyph get exec
} _d

FontName currentdict end definefont pop
end
%%EndProlog
mpldict begin
75.6 223.2 translate
460.8 345.6 0 0 clipbox
gsave
0 0 m
460.8 0 l
460.8 345.6 l
0 345.6 l
cl
1.000 setgray
fill
grestore
gsave
57.6 38.016 m
414.72 38.016 l
414.72 304.128 l
57.6 304.128 l
cl
1.000 setgray
fill
grestore
0.800 setlinewidth
1 setlinejoin
0 setlinecap
[] 0 setdash
0.000 setgray
gsave
/o {
gsave
newpath
translate
0.8 setlinewidth
1 setlinejoin

0 setlinecap

0 0 m
0 -3.5 l

gsave
0.000 setgray
fill
grestore
stroke
grestore
} bind def
57.6 38.016 o
grestore
/DejaVuSans 10.000 selectfont
gsave

46.4672 23.4222 translate
0 rotate
0 0 m /zero glyphshow
6.3623 0 m /period glyphshow
9.54102 0 m /zero glyphshow
15.9033 0 m /zero glyphshow
grestore
gsave
/o {
gsave
newpath
translate
0.8 setlinewidth
1 setlinejoin

0 setlinecap

0 0 m
0 -3.5 l

gsave
0.000 setgray
fill
grestore
stroke
grestore
} bind def
117.12 38.016 o
grestore
/DejaVuSans 10.000 selectfont
gsave

105.987 23.4222 translate
0 rotate
0 0 m /zero glyphshow
6.3623 0 m /period glyphshow
9.54102 0 m /zero glyphshow
15.9033 0 m /five glyphshow
grestore
gsave
/o {
gsave
newpath
translate
0.8 setlinewidth
1 setlinejoin

0 setlinecap

0 0 m
0 -3.5 l

gsave
0.000 setgray
fill
grestore
stroke
grestore
} bind def
176.64 38.016 o
grestore
/DejaVuSans 10.000 selectfont
gsave

165.507 23.4222 translate
0 rotate
0 0 m /zero glyphshow
6.3623 0 m /period glyphshow
9.54102 0 m /one glyphshow
15.9033 0 m /zero glyphshow
grestore
gsave
/o {
gsave
newpath
translate
0.8 setlinewidth
1 setlinejoin

0 setlinecap

0 0 m
0 -3.5 l

gsave
0.000 setgray
fill
grestore
stroke
grestore
} bind def
236.16 38.016 o
grestore
/DejaVuSans 10.000 selectfont
gsave

225.027 23.4222 translate
0 rotate
0 0 m /zero glyphshow
6.3623 0 m /period glyphshow
9.54102 0 m /one glyphshow
15.9033 0 m /five glyphshow
grestore
gsave
/o {
gsave
newpath
translate
0.8 setlinewidth
1 setlinejoin

0 setlinecap

0 0 m
0 -3.5 l

gsave
0.000 setgray
fill
grestore
stroke
grestore
} bind def
295.68 38.016 o
grestore
/DejaVuSans 10.000 selectfont
gsave

284.547 23.4222 translate
0 rotate
0 0 m /zero glyphshow
6.3623 0 m /period glyphshow
9.54102 0 m /two glyphshow
15.9033 0 m /zero glyphshow
grestore
gsave
/o {
gsave
newpath
translate
0.8 setlinewidth
1 setlinejoin

0 setlinecap

0 0 m
0 -3.5 l

gsave
0.000 setgray
fill
grestore
stroke
grestore
} bind def
355.2 38.016 o
grestore
/DejaVuSans 10.000 selectfont
gsave

344.067 23.4222 translate
0 rotate
0 0 m /zero glyphshow
6.3623 0 m /period glyphshow
9.54102 0 m /two glyphshow
15.9033 0 m /five glyphshow
grestore
gsave
/o {
gsave
newpath
translate
0.8 setlinewidth
1 setlinejoin

0 setlinecap

0 0 m
0 -3.5 l

gsave
0.000 setgray
fill
grestore
stroke
grestore
} bind def
414.72 38.016 o
grestore
/DejaVuSans 10.000 selectfont
gsave

403.587 23.4222 translate
0 rotate
0 0 m /zero glyphshow
6.3623 0 m /period glyphshow
9.54102 0 m /three glyphshow
15.9033 0 m /zero glyphshow
grestore
gsave
218.16 7.34412 translate
0 rotate
/DejaVuSans 10.0 selectfont
0 0.71875 moveto
/q glyphshow
6.34766 0.71875 moveto
/space glyphshow
9.52637 0.71875 moveto
/parenleft glyphshow
/DejaVuSans-Oblique 10.0 selectfont
13.4277 0.71875 moveto
/Aring glyphshow
/DejaVuSans 7.0 selectfont
21.2489 4.54688 moveto
/minus glyphshow
27.1142 4.54688 moveto
/one glyphshow
/DejaVuSans 10.0 selectfont
31.8412 0.71875 moveto
/parenright glyphshow
grestore
gsave
/o {
gsave
newpath
translate
0.8 setlinewidth
1 setlinejoin

0 setlinecap

-0 0 m
-3.5 0 l

gsave
0.000 setgray
fill
grestore
stroke
grestore
} bind def
57.6 50.7676 o
grestore
gsave
26.6 46.8067 translate
0 rotate
/DejaVuSans 10.0 selectfont
0 0.0640625 moveto
/one glyphshow
6.3623 0.0640625 moveto
/zero glyphshow
/DejaVuSans 7.0 selectfont
12.8203 3.89219 moveto
/minus glyphshow
18.6855 3.89219 moveto
/five glyphshow
grestore
gsave
/o {
gsave
newpath
translate
0.8 setlinewidth
1 setlinejoin

0 setlinecap

-0 0 m
-3.5 0 l

gsave
0.000 setgray
fill
grestore
stroke
grestore
} bind def
57.6 134.143 o
grestore
gsave
26.6 130.182 translate
0 rotate
/DejaVuSans 10.0 selectfont
0 0.0640625 moveto
/one glyphshow
6.3623 0.0640625 moveto
/zero glyphshow
/DejaVuSans 7.0 selectfont
12.8203 3.89219 moveto
/minus glyphshow
18.6855 3.89219 moveto
/four glyphshow
grestore
gsave
/o {
gsave
newpath
translate
0.8 setlinewidth
1 setlinejoin

0 setlinecap

-0 0 m
-3.5 0 l

gsave
0.000 setgray
fill
grestore
stroke
grestore
} bind def
57.6 217.519 o
grestore
gsave
26.6 213.058 translate
0 rotate
/DejaVuSans 10.0 selectfont
0 0.976562 moveto
/one glyphshow
6.3623 0.976562 moveto
/zero glyphshow
/DejaVuSans 7.0 selectfont
12.8203 4.80469 moveto
/minus glyphshow
18.6855 4.80469 moveto
/three glyphshow
grestore
gsave
/o {
gsave
newpath
translate
0.8 setlinewidth
1 setlinejoin

0 setlinecap

-0 0 m
-3.5 0 l

gsave
0.000 setgray
fill
grestore
stroke
grestore
} bind def
57.6 300.894 o
grestore
gsave
26.6 296.433 translate
0 rotate
/DejaVuSans 10.0 selectfont
0 0.976562 moveto
/one glyphshow
6.3623 0.976562 moveto
/zero glyphshow
/DejaVuSans 7.0 selectfont
12.8203 4.80469 moveto
/minus glyphshow
18.6855 4.80469 moveto
/two glyphshow
grestore
0.600 setlinewidth
gsave
/o {
gsave
newpath
translate
0.6 setlinewidth
1 setlinejoin

0 setlinecap

-0 0 m
-2 0 l

gsave
0.000 setgray
fill
grestore
stroke
grestore
} bind def
57.6 42.6877 o
grestore
gsave
/o {
gsave
newpath
translate
0.6 setlinewidth
1 setlinejoin

0 setlinecap

-0 0 m
-2 0 l

gsave
0.000 setgray
fill
grestore
stroke
grestore
} bind def
57.6 46.9526 o
grestore
gsave
/o {
gsave
newpath
translate
0.6 setlinewidth
1 setlinejoin

0 setlinecap

-0 0 m
-2 0 l

gsave
0.000 setgray
fill
grestore
stroke
grestore
} bind def
57.6 75.8662 o
grestore
gsave
/o {
gsave
newpath
translate
0.6 setlinewidth
1 setlinejoin

0 setlinecap

-0 0 m
-2 0 l

gsave
0.000 setgray
fill
grestore
stroke
grestore
} bind def
57.6 90.5479 o
grestore
gsave
/o {
gsave
newpath
translate
0.6 setlinewidth
1 setlinejoin

0 setlinecap

-0 0 m
-2 0 l

gsave
0.000 setgray
fill
grestore
stroke
grestore
} bind def
57.6 100.965 o
grestore
gsave
/o {
gsave
newpath
translate
0.6 setlinewidth
1 setlinejoin

0 setlinecap

-0 0 m
-2 0 l

gsave
0.000 setgray
fill
grestore
stroke
grestore
} bind def
57.6 109.045 o
grestore
gsave
/o {
gsave
newpath
translate
0.6 setlinewidth
1 setlinejoin

0 setlinecap

-0 0 m
-2 0 l

gsave
0.000 setgray
fill
grestore
stroke
grestore
} bind def
57.6 115.646 o
grestore
gsave
/o {
gsave
newpath
translate
0.6 setlinewidth
1 setlinejoin

0 setlinecap

-0 0 m
-2 0 l

gsave
0.000 setgray
fill
grestore
stroke
grestore
} bind def
57.6 121.228 o
grestore
gsave
/o {
gsave
newpath
translate
0.6 setlinewidth
1 setlinejoin

0 setlinecap

-0 0 m
-2 0 l

gsave
0.000 setgray
fill
grestore
stroke
grestore
} bind def
57.6 126.063 o
grestore
gsave
/o {
gsave
newpath
translate
0.6 setlinewidth
1 setlinejoin

0 setlinecap

-0 0 m
-2 0 l

gsave
0.000 setgray
fill
grestore
stroke
grestore
} bind def
57.6 130.328 o
grestore
gsave
/o {
gsave
newpath
translate
0.6 setlinewidth
1 setlinejoin

0 setlinecap

-0 0 m
-2 0 l

gsave
0.000 setgray
fill
grestore
stroke
grestore
} bind def
57.6 159.242 o
grestore
gsave
/o {
gsave
newpath
translate
0.6 setlinewidth
1 setlinejoin

0 setlinecap

-0 0 m
-2 0 l

gsave
0.000 setgray
fill
grestore
stroke
grestore
} bind def
57.6 173.923 o
grestore
gsave
/o {
gsave
newpath
translate
0.6 setlinewidth
1 setlinejoin

0 setlinecap

-0 0 m
-2 0 l

gsave
0.000 setgray
fill
grestore
stroke
grestore
} bind def
57.6 184.34 o
grestore
gsave
/o {
gsave
newpath
translate
0.6 setlinewidth
1 setlinejoin

0 setlinecap

-0 0 m
-2 0 l

gsave
0.000 setgray
fill
grestore
stroke
grestore
} bind def
57.6 192.42 o
grestore
gsave
/o {
gsave
newpath
translate
0.6 setlinewidth
1 setlinejoin

0 setlinecap

-0 0 m
-2 0 l

gsave
0.000 setgray
fill
grestore
stroke
grestore
} bind def
57.6 199.022 o
grestore
gsave
/o {
gsave
newpath
translate
0.6 setlinewidth
1 setlinejoin

0 setlinecap

-0 0 m
-2 0 l

gsave
0.000 setgray
fill
grestore
stroke
grestore
} bind def
57.6 204.604 o
grestore
gsave
/o {
gsave
newpath
translate
0.6 setlinewidth
1 setlinejoin

0 setlinecap

-0 0 m
-2 0 l

gsave
0.000 setgray
fill
grestore
stroke
grestore
} bind def
57.6 209.439 o
grestore
gsave
/o {
gsave
newpath
translate
0.6 setlinewidth
1 setlinejoin

0 setlinecap

-0 0 m
-2 0 l

gsave
0.000 setgray
fill
grestore
stroke
grestore
} bind def
57.6 213.704 o
grestore
gsave
/o {
gsave
newpath
translate
0.6 setlinewidth
1 setlinejoin

0 setlinecap

-0 0 m
-2 0 l

gsave
0.000 setgray
fill
grestore
stroke
grestore
} bind def
57.6 242.617 o
grestore
gsave
/o {
gsave
newpath
translate
0.6 setlinewidth
1 setlinejoin

0 setlinecap

-0 0 m
-2 0 l

gsave
0.000 setgray
fill
grestore
stroke
grestore
} bind def
57.6 257.299 o
grestore
gsave
/o {
gsave
newpath
translate
0.6 setlinewidth
1 setlinejoin

0 setlinecap

-0 0 m
-2 0 l

gsave
0.000 setgray
fill
grestore
stroke
grestore
} bind def
57.6 267.716 o
grestore
gsave
/o {
gsave
newpath
translate
0.6 setlinewidth
1 setlinejoin

0 setlinecap

-0 0 m
-2 0 l

gsave
0.000 setgray
fill
grestore
stroke
grestore
} bind def
57.6 275.796 o
grestore
gsave
/o {
gsave
newpath
translate
0.6 setlinewidth
1 setlinejoin

0 setlinecap

-0 0 m
-2 0 l

gsave
0.000 setgray
fill
grestore
stroke
grestore
} bind def
57.6 282.398 o
grestore
gsave
/o {
gsave
newpath
translate
0.6 setlinewidth
1 setlinejoin

0 setlinecap

-0 0 m
-2 0 l

gsave
0.000 setgray
fill
grestore
stroke
grestore
} bind def
57.6 287.979 o
grestore
gsave
/o {
gsave
newpath
translate
0.6 setlinewidth
1 setlinejoin

0 setlinecap

-0 0 m
-2 0 l

gsave
0.000 setgray
fill
grestore
stroke
grestore
} bind def
57.6 292.814 o
grestore
gsave
/o {
gsave
newpath
translate
0.6 setlinewidth
1 setlinejoin

0 setlinecap

-0 0 m
-2 0 l

gsave
0.000 setgray
fill
grestore
stroke
grestore
} bind def
57.6 297.079 o
grestore
/DejaVuSans 10.000 selectfont
gsave

20.5219 110.181 translate
90 rotate
0 0 m /I glyphshow
2.94922 0 m /n glyphshow
9.28711 0 m /t glyphshow
13.208 0 m /e glyphshow
19.3604 0 m /n glyphshow
25.6982 0 m /s glyphshow
30.9082 0 m /i glyphshow
33.6865 0 m /t glyphshow
37.6074 0 m /y glyphshow
43.5254 0 m /space glyphshow
46.7041 0 m /parenleft glyphshow
50.6055 0 m /P glyphshow
56.6357 0 m /h glyphshow
62.9736 0 m /o glyphshow
69.0918 0 m /t glyphshow
73.0127 0 m /o glyphshow
79.1309 0 m /n glyphshow
85.4688 0 m /s glyphshow
90.6787 0 m /slash glyphshow
94.0479 0 m /p glyphshow
100.396 0 m /i glyphshow
103.174 0 m /x glyphshow
108.842 0 m /e glyphshow
114.994 0 m /l glyphshow
117.772 0 m /parenright glyphshow
grestore
1.500 setlinewidth
2 setlinecap
0.122 0.467 0.706 setrgbcolor
gsave
357.12 266.112 57.6 38.016 clipbox
57.6 291.572912 m
62.092194 291.484274 l
66.584389 291.16572 l
71.076583 290.629223 l
75.943127 289.812069 l
80.809671 288.756691 l
85.676215 287.467323 l
90.542759 285.945441 l
95.409303 284.190088 l
100.275847 282.198127 l
105.142391 279.964461 l
110.008935 277.48228 l
114.875479 274.743369 l
119.742023 271.738574 l
124.608567 268.458551 l
129.475111 264.894982 l
134.341655 261.042591 l
139.2082 256.900103 l
144.074744 252.451017 l
148.566938 248.046918 l
153.059132 243.332699 l
157.551327 238.284595 l
162.043521 232.88198 l
166.535716 227.112678 l
171.02791 220.980889 l
175.520105 214.47805 l
180.012299 207.565116 l
184.130144 200.830806 l
188.247989 193.680969 l
192.365834 186.084217 l
196.483679 178.019424 l
200.975873 168.693074 l
205.842417 158.049756 l
214.078107 139.349892 l
218.570302 129.453002 l
221.565098 123.3715 l
223.811195 119.249476 l
226.057293 115.613318 l
227.92904 113.012499 l
229.800788 110.833419 l
231.298186 109.399573 l
232.795584 108.233718 l
234.292982 107.319008 l
235.790381 106.629723 l
237.287779 106.140716 l
238.785177 105.842391 l
240.656925 105.722309 l
242.528672 105.858859 l
244.40042 106.220957 l
246.646517 106.904559 l
249.266964 107.967122 l
252.63611 109.605183 l
262.743547 114.723301 l
265.738344 115.92412 l
268.35879 116.751805 l
270.979237 117.35461 l
273.974034 117.792639 l
276.96883 117.987265 l
279.963626 117.958335 l
282.958422 117.72136 l
286.327568 117.221062 l
289.696714 116.485927 l
293.06586 115.525755 l
296.435006 114.347644 l
300.178501 112.789009 l
303.921997 110.973234 l
307.665492 108.909298 l
311.783337 106.365319 l
315.901182 103.552897 l
320.393376 100.210887 l
325.63427 96.023926 l
340.982601 83.528094 l
346.223495 79.649071 l
351.090039 76.321936 l
355.582233 73.519599 l
359.700078 71.196074 l
363.817923 69.114695 l
367.935768 67.273206 l
372.053613 65.671874 l
376.171458 64.313858 l
380.289303 63.195245 l
384.407148 62.304658 l
388.899342 61.571416 l
393.765886 61.021179 l
399.00678 60.656794 l
405.370722 60.447705 l
413.232062 60.435568 l
431.575189 60.706847 l
431.575189 60.706847 l
stroke
grestore
0 setlinecap
1.000 0.498 0.055 setrgbcolor
gsave
357.12 266.112 57.6 38.016 clipbox

stroke
grestore
gsave
357.12 266.112 57.6 38.016 clipbox

stroke
grestore
gsave
357.12 266.112 57.6 38.016 clipbox

stroke
grestore
gsave
357.12 266.112 57.6 38.016 clipbox

stroke
grestore
gsave
357.12 266.112 57.6 38.016 clipbox

stroke
grestore
gsave
357.12 266.112 57.6 38.016 clipbox
103.558764 255.052132 m
103.625215 255.052132 l
stroke
grestore
gsave
357.12 266.112 57.6 38.016 clipbox
111.914903 273.768631 m
111.993436 273.768631 l
stroke
grestore
gsave
357.12 266.112 57.6 38.016 clipbox
120.271042 269.104028 m
120.361657 269.104028 l
stroke
grestore
gsave
357.12 266.112 57.6 38.016 clipbox
128.627181 265.125468 m
128.729878 265.125468 l
stroke
grestore
gsave
357.12 266.112 57.6 38.016 clipbox
136.98332 258.711504 m
137.098099 258.711504 l
stroke
grestore
gsave
357.12 266.112 57.6 38.016 clipbox
145.339458 250.558251 m
145.46632 250.558251 l
stroke
grestore
gsave
357.12 266.112 57.6 38.016 clipbox
153.695597 241.489659 m
153.834541 241.489659 l
stroke
grestore
gsave
357.12 266.112 57.6 38.016 clipbox
162.051736 230.774901 m
162.202762 230.774901 l
stroke
grestore
gsave
357.12 266.112 57.6 38.016 clipbox
170.407875 219.829294 m
170.570983 219.829294 l
stroke
grestore
gsave
357.12 266.112 57.6 38.016 clipbox
178.764014 207.352143 m
178.939204 207.352143 l
stroke
grestore
gsave
357.12 266.112 57.6 38.016 clipbox
187.120153 193.397517 m
187.307425 193.397517 l
stroke
grestore
gsave
357.12 266.112 57.6 38.016 clipbox
195.476292 179.024232 m
195.675646 179.024232 l
stroke
grestore
gsave
357.12 266.112 57.6 38.016 clipbox
203.832431 160.986021 m
204.043867 160.986021 l
stroke
grestore
gsave
357.12 266.112 57.6 38.016 clipbox
212.18857 142.58369 m
212.412088 142.58369 l
stroke
grestore
gsave
357.12 266.112 57.6 38.016 clipbox
220.544709 123.17186 m
220.780309 123.17186 l
stroke
grestore
gsave
357.12 266.112 57.6 38.016 clipbox
228.900847 111.277604 m
229.14853 111.277604 l
stroke
grestore
gsave
357.12 266.112 57.6 38.016 clipbox
237.256986 107.183985 m
237.516751 107.183985 l
stroke
grestore
gsave
357.12 266.112 57.6 38.016 clipbox
245.613125 110.405938 m
245.884972 110.405938 l
stroke
grestore
gsave
357.12 266.112 57.6 38.016 clipbox
253.969264 115.701159 m
254.253193 115.701159 l
stroke
grestore
gsave
357.12 266.112 57.6 38.016 clipbox
262.325403 116.779422 m
262.621414 116.779422 l
stroke
grestore
gsave
357.12 266.112 57.6 38.016 clipbox
270.681542 120.920491 m
270.989635 120.920491 l
stroke
grestore
gsave
357.12 266.112 57.6 38.016 clipbox
279.037681 123.318617 m
279.357856 123.318617 l
stroke
grestore
gsave
357.12 266.112 57.6 38.016 clipbox
287.39382 125.574982 m
287.726077 125.574982 l
stroke
grestore
gsave
357.12 266.112 57.6 38.016 clipbox
295.749959 122.362426 m
296.094298 122.362426 l
stroke
grestore
gsave
357.12 266.112 57.6 38.016 clipbox
304.106097 121.370361 m
304.462519 121.370361 l
stroke
grestore
gsave
357.12 266.112 57.6 38.016 clipbox
312.462236 119.327521 m
312.83074 119.327521 l
stroke
grestore
gsave
357.12 266.112 57.6 38.016 clipbox
320.818375 116.938484 m
321.198961 116.938484 l
stroke
grestore
gsave
357.12 266.112 57.6 38.016 clipbox
329.174514 116.371753 m
329.567182 116.371753 l
stroke
grestore
gsave
357.12 266.112 57.6 38.016 clipbox
337.530653 110.626869 m
337.935403 110.626869 l
stroke
grestore
gsave
357.12 266.112 57.6 38.016 clipbox
345.886792 111.501413 m
346.303624 111.501413 l
stroke
grestore
gsave
357.12 266.112 57.6 38.016 clipbox
354.242931 111.267287 m
354.671845 111.267287 l
stroke
grestore
gsave
357.12 266.112 57.6 38.016 clipbox
362.59907 110.318616 m
363.040065 110.318616 l
stroke
grestore
gsave
357.12 266.112 57.6 38.016 clipbox
370.955209 110.624404 m
371.408286 110.624404 l
stroke
grestore
gsave
357.12 266.112 57.6 38.016 clipbox
379.311348 110.696807 m
379.776507 110.696807 l
stroke
grestore
gsave
357.12 266.112 57.6 38.016 clipbox
387.667486 114.552965 m
388.144728 114.552965 l
stroke
grestore
gsave
357.12 266.112 57.6 38.016 clipbox
396.023625 112.732322 m
396.512949 112.732322 l
stroke
grestore
gsave
357.12 266.112 57.6 38.016 clipbox
404.379764 115.341898 m
404.88117 115.341898 l
stroke
grestore
gsave
357.12 266.112 57.6 38.016 clipbox
412.735903 111.834617 m
413.249391 111.834617 l
stroke
grestore
gsave
357.12 266.112 57.6 38.016 clipbox
421.092042 115.309847 m
421.617612 115.309847 l
stroke
grestore
gsave
357.12 266.112 57.6 38.016 clipbox
429.448181 109.982375 m
429.985833 109.982375 l
stroke
grestore
gsave
357.12 266.112 57.6 38.016 clipbox
437.80432 109.375432 m
438.354054 109.375432 l
stroke
grestore
gsave
357.12 266.112 57.6 38.016 clipbox
446.160459 112.309989 m
446.722275 112.309989 l
stroke
grestore
gsave
357.12 266.112 57.6 38.016 clipbox
454.516598 109.170745 m
455.090496 109.170745 l
stroke
grestore
gsave
357.12 266.112 57.6 38.016 clipbox

stroke
grestore
gsave
357.12 266.112 57.6 38.016 clipbox

stroke
grestore
gsave
357.12 266.112 57.6 38.016 clipbox

stroke
grestore
gsave
357.12 266.112 57.6 38.016 clipbox

stroke
grestore
gsave
357.12 266.112 57.6 38.016 clipbox

stroke
grestore
gsave
357.12 266.112 57.6 38.016 clipbox

stroke
grestore
gsave
357.12 266.112 57.6 38.016 clipbox

stroke
grestore
gsave
357.12 266.112 57.6 38.016 clipbox

stroke
grestore
gsave
357.12 266.112 57.6 38.016 clipbox

stroke
grestore
gsave
357.12 266.112 57.6 38.016 clipbox

stroke
grestore
gsave
357.12 266.112 57.6 38.016 clipbox

stroke
grestore
gsave
357.12 266.112 57.6 38.016 clipbox

stroke
grestore
gsave
357.12 266.112 57.6 38.016 clipbox

stroke
grestore
gsave
357.12 266.112 57.6 38.016 clipbox

stroke
grestore
gsave
357.12 266.112 57.6 38.016 clipbox

stroke
grestore
gsave
357.12 266.112 57.6 38.016 clipbox

stroke
grestore
gsave
357.12 266.112 57.6 38.016 clipbox

stroke
grestore
gsave
357.12 266.112 57.6 38.016 clipbox

stroke
grestore
gsave
357.12 266.112 57.6 38.016 clipbox

stroke
grestore
gsave
357.12 266.112 57.6 38.016 clipbox

stroke
grestore
gsave
357.12 266.112 57.6 38.016 clipbox

stroke
grestore
gsave
357.12 266.112 57.6 38.016 clipbox

stroke
grestore
gsave
357.12 266.112 57.6 38.016 clipbox

stroke
grestore
gsave
357.12 266.112 57.6 38.016 clipbox

stroke
grestore
gsave
357.12 266.112 57.6 38.016 clipbox

stroke
grestore
gsave
357.12 266.112 57.6 38.016 clipbox

stroke
grestore
gsave
357.12 266.112 57.6 38.016 clipbox

stroke
grestore
gsave
357.12 266.112 57.6 38.016 clipbox

stroke
grestore
gsave
357.12 266.112 57.6 38.016 clipbox

stroke
grestore
gsave
357.12 266.112 57.6 38.016 clipbox

stroke
grestore
gsave
357.12 266.112 57.6 38.016 clipbox

stroke
grestore
gsave
357.12 266.112 57.6 38.016 clipbox

stroke
grestore
gsave
357.12 266.112 57.6 38.016 clipbox

stroke
grestore
gsave
357.12 266.112 57.6 38.016 clipbox

stroke
grestore
gsave
357.12 266.112 57.6 38.016 clipbox

stroke
grestore
gsave
357.12 266.112 57.6 38.016 clipbox

stroke
grestore
gsave
357.12 266.112 57.6 38.016 clipbox

stroke
grestore
gsave
357.12 266.112 57.6 38.016 clipbox

stroke
grestore
gsave
357.12 266.112 57.6 38.016 clipbox

stroke
grestore
gsave
357.12 266.112 57.6 38.016 clipbox

stroke
grestore
gsave
357.12 266.112 57.6 38.016 clipbox

stroke
grestore
gsave
357.12 266.112 57.6 38.016 clipbox

stroke
grestore
gsave
357.12 266.112 57.6 38.016 clipbox

stroke
grestore
gsave
357.12 266.112 57.6 38.016 clipbox

stroke
grestore
gsave
357.12 266.112 57.6 38.016 clipbox

stroke
grestore
gsave
357.12 266.112 57.6 38.016 clipbox

stroke
grestore
gsave
357.12 266.112 57.6 38.016 clipbox

stroke
grestore
gsave
357.12 266.112 57.6 38.016 clipbox

stroke
grestore
gsave
357.12 266.112 57.6 38.016 clipbox

stroke
grestore
gsave
357.12 266.112 57.6 38.016 clipbox

stroke
grestore
gsave
357.12 266.112 57.6 38.016 clipbox

stroke
grestore
gsave
357.12 266.112 57.6 38.016 clipbox

stroke
grestore
gsave
357.12 266.112 57.6 38.016 clipbox

stroke
grestore
gsave
357.12 266.112 57.6 38.016 clipbox

stroke
grestore
gsave
357.12 266.112 57.6 38.016 clipbox

stroke
grestore
gsave
357.12 266.112 57.6 38.016 clipbox

stroke
grestore
gsave
357.12 266.112 57.6 38.016 clipbox

stroke
grestore
gsave
357.12 266.112 57.6 38.016 clipbox
103.59199 -1 m
103.59199 292.032 l
stroke
grestore
gsave
357.12 266.112 57.6 38.016 clipbox
111.95417 256.460451 m
111.95417 285.430554 l
stroke
grestore
gsave
357.12 266.112 57.6 38.016 clipbox
120.31635 266.547132 m
120.31635 271.492219 l
stroke
grestore
gsave
357.12 266.112 57.6 38.016 clipbox
128.678529 263.69239 m
128.678529 266.503982 l
stroke
grestore
gsave
357.12 266.112 57.6 38.016 clipbox
137.040709 257.530813 m
137.040709 259.854908 l
stroke
grestore
gsave
357.12 266.112 57.6 38.016 clipbox
145.402889 249.475666 m
145.402889 251.609407 l
stroke
grestore
gsave
357.12 266.112 57.6 38.016 clipbox
153.765069 240.38154 m
153.765069 242.56487 l
stroke
grestore
gsave
357.12 266.112 57.6 38.016 clipbox
162.127249 229.565183 m
162.127249 231.945507 l
stroke
grestore
gsave
357.12 266.112 57.6 38.016 clipbox
170.489429 218.708568 m
170.489429 220.91637 l
stroke
grestore
gsave
357.12 266.112 57.6 38.016 clipbox
178.851609 205.920212 m
178.851609 208.729595 l
stroke
grestore
gsave
357.12 266.112 57.6 38.016 clipbox
187.213789 191.807051 m
187.213789 194.921052 l
stroke
grestore
gsave
357.12 266.112 57.6 38.016 clipbox
195.575969 177.063222 m
195.575969 180.884472 l
stroke
grestore
gsave
357.12 266.112 57.6 38.016 clipbox
203.938149 158.413617 m
203.938149 163.387736 l
stroke
grestore
gsave
357.12 266.112 57.6 38.016 clipbox
212.300329 139.36323 m
212.300329 145.540971 l
stroke
grestore
gsave
357.12 266.112 57.6 38.016 clipbox
220.662509 119.084303 m
220.662509 126.844438 l
stroke
grestore
gsave
357.12 266.112 57.6 38.016 clipbox
229.024689 94.743417 m
229.024689 122.586312 l
stroke
grestore
gsave
357.12 266.112 57.6 38.016 clipbox
237.386869 102.344753 m
237.386869 111.45206 l
stroke
grestore
gsave
357.12 266.112 57.6 38.016 clipbox
245.749049 105.354595 m
245.749049 114.838101 l
stroke
grestore
gsave
357.12 266.112 57.6 38.016 clipbox
254.111228 109.850195 m
254.111228 120.736894 l
stroke
grestore
gsave
357.12 266.112 57.6 38.016 clipbox
262.473408 114.024878 m
262.473408 119.339153 l
stroke
grestore
gsave
357.12 266.112 57.6 38.016 clipbox
270.835588 118.510809 m
270.835588 123.179771 l
stroke
grestore
gsave
357.12 266.112 57.6 38.016 clipbox
279.197768 121.484375 m
279.197768 125.064405 l
stroke
grestore
gsave
357.12 266.112 57.6 38.016 clipbox
287.559948 124.515673 m
287.559948 126.60418 l
stroke
grestore
gsave
357.12 266.112 57.6 38.016 clipbox
295.922128 120.886553 m
295.922128 123.780493 l
stroke
grestore
gsave
357.12 266.112 57.6 38.016 clipbox
304.284308 120.086949 m
304.284308 122.609837 l
stroke
grestore
gsave
357.12 266.112 57.6 38.016 clipbox
312.646488 118.09618 m
312.646488 120.518362 l
stroke
grestore
gsave
357.12 266.112 57.6 38.016 clipbox
321.008668 115.555256 m
321.008668 118.27081 l
stroke
grestore
gsave
357.12 266.112 57.6 38.016 clipbox
329.370848 114.679339 m
329.370848 117.988584 l
stroke
grestore
gsave
357.12 266.112 57.6 38.016 clipbox
337.733028 108.730015 m
337.733028 112.429282 l
stroke
grestore
gsave
357.12 266.112 57.6 38.016 clipbox
346.095208 109.914104 m
346.095208 113.022052 l
stroke
grestore
gsave
357.12 266.112 57.6 38.016 clipbox
354.457388 109.929724 m
354.457388 112.557195 l
stroke
grestore
gsave
357.12 266.112 57.6 38.016 clipbox
362.819568 108.476573 m
362.819568 112.071471 l
stroke
grestore
gsave
357.12 266.112 57.6 38.016 clipbox
371.181748 101.93393 m
371.181748 117.627571 l
stroke
grestore
gsave
357.12 266.112 57.6 38.016 clipbox
379.543928 109.110197 m
379.543928 112.216805 l
stroke
grestore
gsave
357.12 266.112 57.6 38.016 clipbox
387.906107 113.172076 m
387.906107 115.883121 l
stroke
grestore
gsave
357.12 266.112 57.6 38.016 clipbox
396.268287 109.601067 m
396.268287 115.614218 l
stroke
grestore
gsave
357.12 266.112 57.6 38.016 clipbox
404.630467 113.448099 m
404.630467 117.141552 l
stroke
grestore
gsave
357.12 266.112 57.6 38.016 clipbox
412.992647 108.960477 m
412.992647 114.497303 l
stroke
grestore
gsave
357.12 266.112 57.6 38.016 clipbox
421.354827 113.567265 m
421.354827 116.972404 l
stroke
grestore
gsave
357.12 266.112 57.6 38.016 clipbox
429.717007 108.291457 m
429.717007 111.59784 l
stroke
grestore
gsave
357.12 266.112 57.6 38.016 clipbox
438.079187 107.928317 m
438.079187 110.766929 l
stroke
grestore
gsave
357.12 266.112 57.6 38.016 clipbox
446.441367 110.799282 m
446.441367 113.760183 l
stroke
grestore
gsave
357.12 266.112 57.6 38.016 clipbox
454.803547 107.527543 m
454.803547 110.742604 l
stroke
grestore
gsave
357.12 266.112 57.6 38.016 clipbox

stroke
grestore
gsave
357.12 266.112 57.6 38.016 clipbox

stroke
grestore
gsave
357.12 266.112 57.6 38.016 clipbox

stroke
grestore
gsave
357.12 266.112 57.6 38.016 clipbox

stroke
grestore
gsave
357.12 266.112 57.6 38.016 clipbox

stroke
grestore
gsave
357.12 266.112 57.6 38.016 clipbox

stroke
grestore
gsave
357.12 266.112 57.6 38.016 clipbox

stroke
grestore
gsave
357.12 266.112 57.6 38.016 clipbox

stroke
grestore
gsave
357.12 266.112 57.6 38.016 clipbox

stroke
grestore
gsave
357.12 266.112 57.6 38.016 clipbox

stroke
grestore
gsave
357.12 266.112 57.6 38.016 clipbox

stroke
grestore
gsave
357.12 266.112 57.6 38.016 clipbox

stroke
grestore
gsave
357.12 266.112 57.6 38.016 clipbox

stroke
grestore
gsave
357.12 266.112 57.6 38.016 clipbox

stroke
grestore
gsave
357.12 266.112 57.6 38.016 clipbox

stroke
grestore
gsave
357.12 266.112 57.6 38.016 clipbox

stroke
grestore
gsave
357.12 266.112 57.6 38.016 clipbox

stroke
grestore
gsave
357.12 266.112 57.6 38.016 clipbox

stroke
grestore
gsave
357.12 266.112 57.6 38.016 clipbox

stroke
grestore
gsave
357.12 266.112 57.6 38.016 clipbox

stroke
grestore
gsave
357.12 266.112 57.6 38.016 clipbox

stroke
grestore
gsave
357.12 266.112 57.6 38.016 clipbox

stroke
grestore
gsave
357.12 266.112 57.6 38.016 clipbox

stroke
grestore
gsave
357.12 266.112 57.6 38.016 clipbox

stroke
grestore
gsave
357.12 266.112 57.6 38.016 clipbox

stroke
grestore
gsave
357.12 266.112 57.6 38.016 clipbox

stroke
grestore
gsave
357.12 266.112 57.6 38.016 clipbox

stroke
grestore
gsave
357.12 266.112 57.6 38.016 clipbox

stroke
grestore
gsave
357.12 266.112 57.6 38.016 clipbox

stroke
grestore
gsave
357.12 266.112 57.6 38.016 clipbox

stroke
grestore
gsave
357.12 266.112 57.6 38.016 clipbox

stroke
grestore
gsave
357.12 266.112 57.6 38.016 clipbox

stroke
grestore
gsave
357.12 266.112 57.6 38.016 clipbox

stroke
grestore
gsave
357.12 266.112 57.6 38.016 clipbox

stroke
grestore
gsave
357.12 266.112 57.6 38.016 clipbox

stroke
grestore
gsave
357.12 266.112 57.6 38.016 clipbox

stroke
grestore
gsave
357.12 266.112 57.6 38.016 clipbox

stroke
grestore
gsave
357.12 266.112 57.6 38.016 clipbox

stroke
grestore
gsave
357.12 266.112 57.6 38.016 clipbox

stroke
grestore
gsave
357.12 266.112 57.6 38.016 clipbox

stroke
grestore
gsave
357.12 266.112 57.6 38.016 clipbox

stroke
grestore
gsave
357.12 266.112 57.6 38.016 clipbox

stroke
grestore
gsave
357.12 266.112 57.6 38.016 clipbox

stroke
grestore
gsave
357.12 266.112 57.6 38.016 clipbox

stroke
grestore
gsave
357.12 266.112 57.6 38.016 clipbox

stroke
grestore
gsave
357.12 266.112 57.6 38.016 clipbox

stroke
grestore
gsave
357.12 266.112 57.6 38.016 clipbox

stroke
grestore
gsave
357.12 266.112 57.6 38.016 clipbox

stroke
grestore
gsave
357.12 266.112 57.6 38.016 clipbox

stroke
grestore
gsave
357.12 266.112 57.6 38.016 clipbox

stroke
grestore
gsave
357.12 266.112 57.6 38.016 clipbox

stroke
grestore
gsave
357.12 266.112 57.6 38.016 clipbox

stroke
grestore
1.000 setlinewidth
gsave
357.12 266.112 57.6 38.016 clipbox
/o {
gsave
newpath
translate
1.0 setlinewidth
1 setlinejoin

0 setlinecap

0 -1.5 m
0.397805 -1.5 0.77937 -1.341951 1.06066 -1.06066 c
1.341951 -0.77937 1.5 -0.397805 1.5 0 c
1.5 0.397805 1.341951 0.77937 1.06066 1.06066 c
0.77937 1.341951 0.397805 1.5 0 1.5 c
-0.397805 1.5 -0.77937 1.341951 -1.06066 1.06066 c
-1.341951 0.77937 -1.5 0.397805 -1.5 0 c
-1.5 -0.397805 -1.341951 -0.77937 -1.06066 -1.06066 c
-0.77937 -1.341951 -0.397805 -1.5 0 -1.5 c
cl

gsave
1.000 0.498 0.055 setrgbcolor
fill
grestore
stroke
grestore
} bind def
103.566 -1 o
103.592 255.052 o
111.954 273.769 o
120.316 269.104 o
128.679 265.125 o
137.041 258.712 o
145.403 250.558 o
153.765 241.49 o
162.127 230.775 o
170.489 219.829 o
178.852 207.352 o
187.214 193.398 o
195.576 179.024 o
203.938 160.986 o
212.3 142.584 o
220.663 123.172 o
229.025 111.278 o
237.387 107.184 o
245.749 110.406 o
254.111 115.701 o
262.473 116.779 o
270.836 120.92 o
279.198 123.319 o
287.56 125.575 o
295.922 122.362 o
304.284 121.37 o
312.646 119.328 o
321.009 116.938 o
329.371 116.372 o
337.733 110.627 o
346.095 111.501 o
354.457 111.267 o
362.82 110.319 o
371.182 110.624 o
379.544 110.697 o
387.906 114.553 o
396.268 112.732 o
404.63 115.342 o
412.993 111.835 o
421.355 115.31 o
429.717 109.982 o
438.079 109.375 o
446.441 112.31 o
454.804 109.171 o
461.8 105.15 o
grestore
0.800 setlinewidth
0 setlinejoin
2 setlinecap
0.000 setgray
gsave
57.6 38.016 m
57.6 304.128 l
stroke
grestore
gsave
414.72 38.016 m
414.72 304.128 l
stroke
grestore
gsave
57.6 38.016 m
414.72 38.016 l
stroke
grestore
gsave
57.6 304.128 m
414.72 304.128 l
stroke
grestore
1.000 setlinewidth
0 setlinecap
0.800 setgray
gsave
277.235625 266.78425 m
407.72 266.78425 l
409.053333 266.78425 409.72 267.450917 409.72 268.78425 c
409.72 297.128 l
409.72 298.461333 409.053333 299.128 407.72 299.128 c
277.235625 299.128 l
275.902292 299.128 275.235625 298.461333 275.235625 297.128 c
275.235625 268.78425 l
275.235625 267.450917 275.902292 266.78425 277.235625 266.78425 c
cl
gsave
1.000 setgray
fill
grestore
stroke
grestore
1.500 setlinewidth
1 setlinejoin
2 setlinecap
0.122 0.467 0.706 setrgbcolor
gsave
279.235625 291.03425 m
289.235625 291.03425 l
299.235625 291.03425 l
stroke
grestore
0.000 setgray
/DejaVuSans 10.000 selectfont
gsave

307.236 287.534 translate
0 rotate
0 0 m /S glyphshow
6.34766 0 m /i glyphshow
9.12598 0 m /m glyphshow
18.8672 0 m /u glyphshow
25.2051 0 m /l glyphshow
27.9834 0 m /a glyphshow
34.1113 0 m /t glyphshow
38.0322 0 m /i glyphshow
40.8105 0 m /o glyphshow
46.9287 0 m /n glyphshow
53.2666 0 m /space glyphshow
56.4453 0 m /parenleft glyphshow
60.3467 0 m /D glyphshow
68.0469 0 m /E glyphshow
74.3652 0 m /N glyphshow
81.8457 0 m /S glyphshow
88.1934 0 m /S glyphshow
94.541 0 m /parenright glyphshow
grestore
0 setlinecap
1.000 0.498 0.055 setrgbcolor
gsave
284.235625 276.362375 m
294.235625 276.362375 l
stroke
grestore
gsave
289.235625 271.362375 m
289.235625 281.362375 l
stroke
grestore
1.000 setlinewidth
gsave
/o {
gsave
newpath
translate
1.0 setlinewidth
1 setlinejoin

0 setlinecap

0 -1.5 m
0.397805 -1.5 0.77937 -1.341951 1.06066 -1.06066 c
1.341951 -0.77937 1.5 -0.397805 1.5 0 c
1.5 0.397805 1.341951 0.77937 1.06066 1.06066 c
0.77937 1.341951 0.397805 1.5 0 1.5 c
-0.397805 1.5 -0.77937 1.341951 -1.06066 1.06066 c
-1.341951 0.77937 -1.5 0.397805 -1.5 0 c
-1.5 -0.397805 -1.341951 -0.77937 -1.06066 -1.06066 c
-0.77937 -1.341951 -0.397805 -1.5 0 -1.5 c
cl

gsave
1.000 0.498 0.055 setrgbcolor
fill
grestore
stroke
grestore
} bind def
289.236 276.362 o
grestore
0.000 setgray
/DejaVuSans 10.000 selectfont
gsave

307.236 272.862 translate
0 rotate
0 0 m /S glyphshow
6.34766 0 m /a glyphshow
12.4756 0 m /m glyphshow
22.2168 0 m /p glyphshow
28.5645 0 m /l glyphshow
31.3428 0 m /e glyphshow
37.4951 0 m /space glyphshow
40.6738 0 m /hyphen glyphshow
44.2822 0 m /space glyphshow
47.4609 0 m /B glyphshow
54.3213 0 m /u glyphshow
60.6592 0 m /f glyphshow
64.1797 0 m /f glyphshow
67.7002 0 m /e glyphshow
73.8525 0 m /r glyphshow
grestore

end
showpage
